# .PCD v0.7 - Point Cloud Data file format
VERSION 0.7
FIELDS x y z
SIZE 4 4 4
TYPE F F F
COUNT 1 1 1
WIDTH 26
HEIGHT 1
VIEWPOINT 0 0 0 1 0 0 0
POINTS 26
DATA ascii
11.037877 -7.6202087 1.1734649
10.887972 -7.6238403 0.69659162
10.775885 -7.5959177 0.23012744
10.75521 -7.5869665 0.68978798
10.748224 -7.6073503 -0.22984821
10.747674 -7.6323295 0.23009254
10.718894 -7.6175199 0.68915993
10.853818 -7.716258 1.165098
10.71672 -7.6413388 -0.22974348
10.720967 -7.6697989 0.23009254
10.677622 -7.6444259 0.68821788
10.805759 -7.7390175 1.1628319
10.87513 -7.8116956 -0.23372263
10.825534 -7.801878 0.23291981
10.654113 -7.6839881 0.68842721
10.723743 -7.7370529 1.1569053
10.881817 -7.8742285 -0.23445563
10.837071 -7.8678145 0.23375754
10.619146 -7.7152615 0.68790388
10.637039 -7.7310972 1.1504558
10.61955 -7.7723351 0.68968332
10.64857 -7.7964292 1.1546392
10.677557 -7.8721724 0.6952309
10.712687 -7.9009604 1.164575
10.752632 -7.9856086 0.70192993
10.785463 -8.0685577 0.70590746
