# .PCD v0.7 - Point Cloud Data file format
VERSION 0.7
FIELDS x y z
SIZE 4 4 4
TYPE F F F
COUNT 1 1 1
WIDTH 164
HEIGHT 1
VIEWPOINT 0 0 0 1 0 0 0
POINTS 164
DATA ascii
4.9305167 5.1866083 -0.37503949
4.98107 5.2361264 -0.12614599
4.9458308 5.1664796 -0.37483016
4.979949 5.1984921 -0.12565732
4.9527421 5.1376843 -0.37399277
4.9957743 5.1805086 -0.12562242
4.9697533 5.1212306 -0.37399277
4.9494882 5.0666227 -0.61967731
4.9787183 5.0929823 -0.37326008
5.0290203 5.1426477 -0.12555261
5.1514401 5.2494698 0.12837991
4.9722166 5.0527101 -0.62020022
5.0071602 5.0846629 -0.37399277
5.0436292 5.119904 -0.1254479
5.1748619 5.2348208 0.12848462
5.4840469 5.5456524 0.40874386
4.98702 5.0324912 -0.61985165
5.0276899 5.0699911 -0.37420213
5.0783668 5.1193066 -0.12586676
5.1964235 5.2218852 0.12858933
5.4967723 5.5217729 0.40832517
5.0079041 5.0201564 -0.62037456
5.0472984 5.0561161 -0.37441146
5.0868382 5.0939469 -0.12565732
5.2207885 5.2116866 0.12876385
5.4933906 5.4799819 0.40665042
5.020287 4.9993048 -0.61985165
5.0597892 5.0351257 -0.37409744
5.1244407 5.0958986 -0.12614599
5.2503119 5.2046924 0.1290431
5.4897799 5.4382863 0.40497568
5.0518761 4.995759 -0.62159473
5.0830183 5.023047 -0.37451613
5.2190309 5.1538558 -0.12803085
5.2826972 5.2003632 0.12939215
5.494493 5.4050827 0.40392897
5.07726 4.9841886 -0.62246627
5.1047964 5.0094714 -0.37483016
5.1556063 5.0558009 -0.12604128
5.3093982 5.1902771 0.12960157
5.4890375 5.3621454 0.40214953
5.0974793 4.9692183 -0.62281495
5.1317081 4.9990883 -0.37545818
5.1918459 5.0559115 -0.12649503
5.3441706 5.1861024 0.12998553
5.5077229 5.3429508 0.40214953
5.1147957 4.9513927 -0.62281495
5.1663518 4.9978099 -0.37671426
5.1936522 5.0224652 -0.12611109
5.3656569 5.1725163 0.13009024
5.5306568 5.327848 0.40246356
5.140667 4.941792 -0.62386078
5.1800156 4.9778838 -0.3765049
5.224134 5.0167699 -0.12642524
5.3981261 5.167582 0.13043928
5.5540624 5.3150058 0.40288225
5.1743164 4.9412308 -0.62595254
5.2031412 4.9652853 -0.37692359
5.2523184 5.0104589 -0.12670447
5.5798211 5.302464 0.40340558
5.2002063 4.9313655 -0.62699836
5.2282758 4.9562469 -0.37755162
5.2726765 4.9948487 -0.12677428
5.6070132 5.2911777 0.40403363
5.3843803 5.0739884 -0.90841419
5.2260923 4.9213777 -0.62804425
5.2557211 4.9475532 -0.37828431
5.3002768 4.9860034 -0.12701862
5.6356497 5.2811341 0.40476632
5.4107571 5.0632992 -0.90987664
5.2548804 4.9139934 -0.62943876
5.2811193 4.935071 -0.37880769
5.3337216 4.9824882 -0.12740256
5.6672101 5.2736735 0.40570837
5.3885541 5.0056057 -0.90305191
5.3041668 4.9220443 -0.37922639
5.3730736 4.9842377 -0.12792614
5.7075863 5.2741933 0.40727845
5.3992896 4.9823232 -0.90207696
5.3915906 4.9717302 -0.6416406
5.3278036 4.9111948 -0.37974975
5.4022064 4.9762888 -0.12820537
5.7338715 5.2633414 0.40790647
5.3815241 4.9312572 -0.89622724
5.4021678 4.9484444 -0.64094335
5.3699613 4.9154921 -0.38152915
5.431953 4.9705 -0.12851952
5.3861017 4.9026952 -0.89427733
5.4566717 4.9582319 -0.12869404
5.4246545 4.9015546 -0.89768964
5.6220918 5.074604 -0.39691594
5.4926248 4.9542718 -0.1291129
5.5156088 4.9488735 -0.90987664
5.4990482 4.9305511 -0.6461727
5.6287518 5.043303 -0.39607856
5.5307403 4.9537454 -0.12960157
5.3014102 4.7250471 -1.124764
5.5337114 4.9286232 -0.90987664
5.628417 5.0076914 -0.39482248
5.5704131 4.9543424 -0.13012515
5.9692731 5.2886004 0.41795498
5.3022585 4.6943474 -1.1216353
5.5262361 4.8892012 -0.90597677
5.5811014 4.9342699 -0.65175062
5.6419983 4.9863553 -0.39461315
5.5921688 4.9388404 -0.13022986
5.3156466 4.6732001 -1.1210095
5.7162619 5.0218606 -0.93425047
5.6079116 4.9249396 -0.65297085
5.668376 4.9745364 -0.3952412
5.6205401 4.93082 -0.13050909
5.3043337 4.6321578 -1.1153778
5.6430893 4.9210458 -0.65506256
5.7089281 4.9767118 -0.39691594
5.6648598 4.9348121 -0.13113739
5.3025627 4.598083 -1.1116234
5.9003334 5.1128335 -0.9586243
5.674438 4.9153495 -0.65680563
5.7564683 4.9828954 -0.39900938
5.7032232 4.9333243 -0.13162605
5.3125901 4.5743937 -1.1103719
5.7556314 4.9523759 -0.93230057
5.7081733 4.9098077 -0.65872312
5.8192673 5.0018258 -0.40214953
5.7522669 4.9407468 -0.13235906
5.3150134 4.5442667 -1.1075561
5.7004409 4.8703585 -0.92060113
5.7594647 4.9173155 -0.66255796
5.8366904 4.9814835 -0.40214953
5.7846913 4.9336147 -0.1327081
5.3241014 4.5183659 -1.1059917
5.7507105 4.8786817 -0.92596334
5.7887535 4.9074869 -0.66395247
6.0072999 5.0891595 -0.41261673
5.8232412 4.9314861 -0.13319677
5.3066106 4.4717484 -1.0991087
5.7867732 4.8729162 -0.9288882
5.9186444 4.9821963 -0.67685145
6.0831099 5.1170135 -0.41659427
5.8557262 4.9239974 -0.13354582
5.3244405 4.4566603 -1.0997344
5.8363981 4.8817201 -0.93425047
5.9084821 4.9385085 -0.67371386
6.0693903 5.0712023 -0.41450083
5.8959022 4.9227529 -0.13406938
5.3247719 4.4254227 -1.0966057
5.8808899 4.8841472 -0.93863773
5.9263601 4.9201593 -0.67388821
6.093205 5.0550847 -0.4149195
5.9361429 4.9212847 -0.13459297
5.3219037 4.3917227 -1.0928513
5.9315977 4.8913732 -0.94400001
5.9404225 4.8969083 -0.67353958
6.0892301 5.0160074 -0.41345412
5.9872503 4.9284949 -0.13536087
6.0407925 4.9460921 -0.9586243
5.9898562 4.9026446 -0.67720014
6.0850596 4.9770174 -0.41198868
6.0137086 4.9151564 -0.1355703
6.0326266 4.8990889 -0.40727845
6.0618854 4.9193344 -0.13626839
6.0636849 4.8892822 -0.4082205
6.1054873 4.9194775 -0.13686177
6.0931897 4.8780704 -0.40905789
